<VirtualHost 198.252.153.30:80>
    DocumentRoot /var/www/mta-sts
    ServerName mta-sts.riseup.net
    RewriteEngine On
    RewriteRule ^.*$ https://mta-sts.riseup.net%{REQUEST_URI} [R=permanent,L]
</VirtualHost>

<VirtualHost 198.252.153.30:443>
  ServerName mta-sts.riseup.net
  DocumentRoot /var/www/mta-sts
  Include include.d/riseup_ssl_wildcard.inc

#   The [RFC7231] "Content-Type" media type for this resource MUST be
#   "text/plain".  When fetching a policy, senders SHOULD validate that
#   the media type is "text/plain" to guard against cases where
#   webservers allow untrusted users to host non-text content (typically,
#   HTML or images) at a user-defined path.  Additional "Content-Type"
#   parameters are ignored.
  <Directory "/var/www/mta-sts">
        ForceType text/plain
  </Directory>
  
  Header always set Strict-Transport-Security: "max-age=15768000;includeSubdomains;preload"
  Header set X-Frame-Options "deny"
</VirtualHost>
